/*Binary*/
/*
	FLIT:	15 14 13 12 11 10  9  8  7  6  5  4  3  2  1  0
			special |  destination router   |   VC   |T_P H_P
																*/					
/*router 0 packets:*/ 000_00000003_001_11	111_11111111_111_11																	
/*router 1 packets:*/ 111_11111111_111_11	111_11111111_111_11																	
/*router 2 packets:*/ 111_11111111_111_11	111_11111111_111_11																	
/*router 3 packets:*/ 111_11111111_111_11	111_11111111_111_11																	


/* one packet for router 1 */