route:0->0:0
route:0->1:5
route:0->2:5
route:0->3:1
route:0->4:1
route:0->5:1
route:0->6:1
route:0->7:1
route:0->8:1
route:0->9:4
route:0->10:4
route:0->11:4
route:0->12:4
route:0->13:4
route:0->14:4
route:0->15:4
route:0->16:4
route:0->17:4
route:0->18:4
route:0->19:4
route:0->20:4
route:0->21:4
route:0->22:4
route:0->23:4
route:0->24:4
route:0->25:4
route:0->26:4

route:1->0:5
route:1->1:0
route:1->2:5
route:1->3:1
route:1->4:1
route:1->5:1
route:1->6:1
route:1->7:1
route:1->8:1
route:1->9:4
route:1->10:4
route:1->11:4
route:1->12:4
route:1->13:4
route:1->14:4
route:1->15:4
route:1->16:4
route:1->17:4
route:1->18:4
route:1->19:4
route:1->20:4
route:1->21:4
route:1->22:4
route:1->23:4
route:1->24:4
route:1->25:4
route:1->26:4

route:2->0:5
route:2->1:5
route:2->2:0
route:2->3:1
route:2->4:1
route:2->5:1
route:2->6:1
route:2->7:1
route:2->8:1
route:2->9:4
route:2->10:4
route:2->11:4
route:2->12:4
route:2->13:4
route:2->14:4
route:2->15:4
route:2->16:4
route:2->17:4
route:2->18:4
route:2->19:4
route:2->20:4
route:2->21:4
route:2->22:4
route:2->23:4
route:2->24:4
route:2->25:4
route:2->26:4

route:3->0:1
route:3->1:1
route:3->2:1
route:3->3:0
route:3->4:5
route:3->5:5
route:3->6:1
route:3->7:1
route:3->8:1
route:3->9:4
route:3->10:4
route:3->11:4
route:3->12:4
route:3->13:4
route:3->14:4
route:3->15:4
route:3->16:4
route:3->17:4
route:3->18:4
route:3->19:4
route:3->20:4
route:3->21:4
route:3->22:4
route:3->23:4
route:3->24:4
route:3->25:4
route:3->26:4

route:4->0:1
route:4->1:1
route:4->2:1
route:4->3:5
route:4->4:0
route:4->5:5
route:4->6:1
route:4->7:1
route:4->8:1
route:4->9:4
route:4->10:4
route:4->11:4
route:4->12:4
route:4->13:4
route:4->14:4
route:4->15:4
route:4->16:4
route:4->17:4
route:4->18:4
route:4->19:4
route:4->20:4
route:4->21:4
route:4->22:4
route:4->23:4
route:4->24:4
route:4->25:4
route:4->26:4

route:5->0:1
route:5->1:1
route:5->2:1
route:5->3:5
route:5->4:5
route:5->5:0
route:5->6:1
route:5->7:1
route:5->8:1
route:5->9:4
route:5->10:4
route:5->11:4
route:5->12:4
route:5->13:4
route:5->14:4
route:5->15:4
route:5->16:4
route:5->17:4
route:5->18:4
route:5->19:4
route:5->20:4
route:5->21:4
route:5->22:4
route:5->23:4
route:5->24:4
route:5->25:4
route:5->26:4

route:6->0:1
route:6->1:1
route:6->2:1
route:6->3:1
route:6->4:1
route:6->5:1
route:6->6:0
route:6->7:5
route:6->8:5
route:6->9:4
route:6->10:4
route:6->11:4
route:6->12:4
route:6->13:4
route:6->14:4
route:6->15:4
route:6->16:4
route:6->17:4
route:6->18:4
route:6->19:4
route:6->20:4
route:6->21:4
route:6->22:4
route:6->23:4
route:6->24:4
route:6->25:4
route:6->26:4

route:7->0:1
route:7->1:1
route:7->2:1
route:7->3:1
route:7->4:1
route:7->5:1
route:7->6:5
route:7->7:0
route:7->8:5
route:7->9:4
route:7->10:4
route:7->11:4
route:7->12:4
route:7->13:4
route:7->14:4
route:7->15:4
route:7->16:4
route:7->17:4
route:7->18:4
route:7->19:4
route:7->20:4
route:7->21:4
route:7->22:4
route:7->23:4
route:7->24:4
route:7->25:4
route:7->26:4

route:8->0:1
route:8->1:1
route:8->2:1
route:8->3:1
route:8->4:1
route:8->5:1
route:8->6:5
route:8->7:5
route:8->8:0
route:8->9:4
route:8->10:4
route:8->11:4
route:8->12:4
route:8->13:4
route:8->14:4
route:8->15:4
route:8->16:4
route:8->17:4
route:8->18:4
route:8->19:4
route:8->20:4
route:8->21:4
route:8->22:4
route:8->23:4
route:8->24:4
route:8->25:4
route:8->26:4

route:9->0:4
route:9->1:4
route:9->2:4
route:9->3:4
route:9->4:4
route:9->5:4
route:9->6:4
route:9->7:4
route:9->8:4
route:9->9:0
route:9->10:5
route:9->11:5
route:9->12:1
route:9->13:1
route:9->14:1
route:9->15:1
route:9->16:1
route:9->17:1
route:9->18:4
route:9->19:4
route:9->20:4
route:9->21:4
route:9->22:4
route:9->23:4
route:9->24:4
route:9->25:4
route:9->26:4

route:10->0:4
route:10->1:4
route:10->2:4
route:10->3:4
route:10->4:4
route:10->5:4
route:10->6:4
route:10->7:4
route:10->8:4
route:10->9:5
route:10->10:0
route:10->11:5
route:10->12:1
route:10->13:1
route:10->14:1
route:10->15:1
route:10->16:1
route:10->17:1
route:10->18:4
route:10->19:4
route:10->20:4
route:10->21:4
route:10->22:4
route:10->23:4
route:10->24:4
route:10->25:4
route:10->26:4

route:11->0:4
route:11->1:4
route:11->2:4
route:11->3:4
route:11->4:4
route:11->5:4
route:11->6:4
route:11->7:4
route:11->8:4
route:11->9:5
route:11->10:5
route:11->11:0
route:11->12:1
route:11->13:1
route:11->14:1
route:11->15:1
route:11->16:1
route:11->17:1
route:11->18:4
route:11->19:4
route:11->20:4
route:11->21:4
route:11->22:4
route:11->23:4
route:11->24:4
route:11->25:4
route:11->26:4

route:12->0:4
route:12->1:4
route:12->2:4
route:12->3:4
route:12->4:4
route:12->5:4
route:12->6:4
route:12->7:4
route:12->8:4
route:12->9:1
route:12->10:1
route:12->11:1
route:12->12:0
route:12->13:5
route:12->14:5
route:12->15:1
route:12->16:1
route:12->17:1
route:12->18:4
route:12->19:4
route:12->20:4
route:12->21:4
route:12->22:4
route:12->23:4
route:12->24:4
route:12->25:4
route:12->26:4

route:13->0:4
route:13->1:4
route:13->2:4
route:13->3:4
route:13->4:4
route:13->5:4
route:13->6:4
route:13->7:4
route:13->8:4
route:13->9:1
route:13->10:1
route:13->11:1
route:13->12:5
route:13->13:0
route:13->14:5
route:13->15:1
route:13->16:1
route:13->17:1
route:13->18:4
route:13->19:4
route:13->20:4
route:13->21:4
route:13->22:4
route:13->23:4
route:13->24:4
route:13->25:4
route:13->26:4

route:14->0:4
route:14->1:4
route:14->2:4
route:14->3:4
route:14->4:4
route:14->5:4
route:14->6:4
route:14->7:4
route:14->8:4
route:14->9:1
route:14->10:1
route:14->11:1
route:14->12:5
route:14->13:5
route:14->14:0
route:14->15:1
route:14->16:1
route:14->17:1
route:14->18:4
route:14->19:4
route:14->20:4
route:14->21:4
route:14->22:4
route:14->23:4
route:14->24:4
route:14->25:4
route:14->26:4

route:15->0:4
route:15->1:4
route:15->2:4
route:15->3:4
route:15->4:4
route:15->5:4
route:15->6:4
route:15->7:4
route:15->8:4
route:15->9:1
route:15->10:1
route:15->11:1
route:15->12:1
route:15->13:1
route:15->14:1
route:15->15:0
route:15->16:5
route:15->17:5
route:15->18:4
route:15->19:4
route:15->20:4
route:15->21:4
route:15->22:4
route:15->23:4
route:15->24:4
route:15->25:4
route:15->26:4

route:16->0:4
route:16->1:4
route:16->2:4
route:16->3:4
route:16->4:4
route:16->5:4
route:16->6:4
route:16->7:4
route:16->8:4
route:16->9:1
route:16->10:1
route:16->11:1
route:16->12:1
route:16->13:1
route:16->14:1
route:16->15:5
route:16->16:0
route:16->17:5
route:16->18:4
route:16->19:4
route:16->20:4
route:16->21:4
route:16->22:4
route:16->23:4
route:16->24:4
route:16->25:4
route:16->26:4

route:17->0:4
route:17->1:4
route:17->2:4
route:17->3:4
route:17->4:4
route:17->5:4
route:17->6:4
route:17->7:4
route:17->8:4
route:17->9:1
route:17->10:1
route:17->11:1
route:17->12:1
route:17->13:1
route:17->14:1
route:17->15:5
route:17->16:5
route:17->17:0
route:17->18:4
route:17->19:4
route:17->20:4
route:17->21:4
route:17->22:4
route:17->23:4
route:17->24:4
route:17->25:4
route:17->26:4

route:18->0:4
route:18->1:4
route:18->2:4
route:18->3:4
route:18->4:4
route:18->5:4
route:18->6:4
route:18->7:4
route:18->8:4
route:18->9:4
route:18->10:4
route:18->11:4
route:18->12:4
route:18->13:4
route:18->14:4
route:18->15:4
route:18->16:4
route:18->17:4
route:18->18:0
route:18->19:5
route:18->20:5
route:18->21:1
route:18->22:1
route:18->23:1
route:18->24:1
route:18->25:1
route:18->26:1

route:19->0:4
route:19->1:4
route:19->2:4
route:19->3:4
route:19->4:4
route:19->5:4
route:19->6:4
route:19->7:4
route:19->8:4
route:19->9:4
route:19->10:4
route:19->11:4
route:19->12:4
route:19->13:4
route:19->14:4
route:19->15:4
route:19->16:4
route:19->17:4
route:19->18:5
route:19->19:0
route:19->20:5
route:19->21:1
route:19->22:1
route:19->23:1
route:19->24:1
route:19->25:1
route:19->26:1

route:20->0:4
route:20->1:4
route:20->2:4
route:20->3:4
route:20->4:4
route:20->5:4
route:20->6:4
route:20->7:4
route:20->8:4
route:20->9:4
route:20->10:4
route:20->11:4
route:20->12:4
route:20->13:4
route:20->14:4
route:20->15:4
route:20->16:4
route:20->17:4
route:20->18:5
route:20->19:5
route:20->20:0
route:20->21:1
route:20->22:1
route:20->23:1
route:20->24:1
route:20->25:1
route:20->26:1

route:21->0:4
route:21->1:4
route:21->2:4
route:21->3:4
route:21->4:4
route:21->5:4
route:21->6:4
route:21->7:4
route:21->8:4
route:21->9:4
route:21->10:4
route:21->11:4
route:21->12:4
route:21->13:4
route:21->14:4
route:21->15:4
route:21->16:4
route:21->17:4
route:21->18:1
route:21->19:1
route:21->20:1
route:21->21:0
route:21->22:5
route:21->23:5
route:21->24:1
route:21->25:1
route:21->26:1

route:22->0:4
route:22->1:4
route:22->2:4
route:22->3:4
route:22->4:4
route:22->5:4
route:22->6:4
route:22->7:4
route:22->8:4
route:22->9:4
route:22->10:4
route:22->11:4
route:22->12:4
route:22->13:4
route:22->14:4
route:22->15:4
route:22->16:4
route:22->17:4
route:22->18:1
route:22->19:1
route:22->20:1
route:22->21:5
route:22->22:0
route:22->23:5
route:22->24:1
route:22->25:1
route:22->26:1

route:23->0:4
route:23->1:4
route:23->2:4
route:23->3:4
route:23->4:4
route:23->5:4
route:23->6:4
route:23->7:4
route:23->8:4
route:23->9:4
route:23->10:4
route:23->11:4
route:23->12:4
route:23->13:4
route:23->14:4
route:23->15:4
route:23->16:4
route:23->17:4
route:23->18:1
route:23->19:1
route:23->20:1
route:23->21:5
route:23->22:5
route:23->23:0
route:23->24:1
route:23->25:1
route:23->26:1

route:24->0:4
route:24->1:4
route:24->2:4
route:24->3:4
route:24->4:4
route:24->5:4
route:24->6:4
route:24->7:4
route:24->8:4
route:24->9:4
route:24->10:4
route:24->11:4
route:24->12:4
route:24->13:4
route:24->14:4
route:24->15:4
route:24->16:4
route:24->17:4
route:24->18:1
route:24->19:1
route:24->20:1
route:24->21:1
route:24->22:1
route:24->23:1
route:24->24:0
route:24->25:5
route:24->26:5

route:25->0:4
route:25->1:4
route:25->2:4
route:25->3:4
route:25->4:4
route:25->5:4
route:25->6:4
route:25->7:4
route:25->8:4
route:25->9:4
route:25->10:4
route:25->11:4
route:25->12:4
route:25->13:4
route:25->14:4
route:25->15:4
route:25->16:4
route:25->17:4
route:25->18:1
route:25->19:1
route:25->20:1
route:25->21:1
route:25->22:1
route:25->23:1
route:25->24:5
route:25->25:0
route:25->26:5

route:26->0:4
route:26->1:4
route:26->2:4
route:26->3:4
route:26->4:4
route:26->5:4
route:26->6:4
route:26->7:4
route:26->8:4
route:26->9:4
route:26->10:4
route:26->11:4
route:26->12:4
route:26->13:4
route:26->14:4
route:26->15:4
route:26->16:4
route:26->17:4
route:26->18:1
route:26->19:1
route:26->20:1
route:26->21:1
route:26->22:1
route:26->23:1
route:26->24:5
route:26->25:5
route:26->26:0

node 0:1
0:11:1:2
node 1:2
1:25:0:2
1:16:2:2
node 2:4
2:23:0:4
2:16:3:1
2:0:1:1
2:20:0:2
node 3:1
3:12:0:1
node 4:2
4:5:0:2
4:19:1:1
node 5:1
5:20:1:4
node 9:1
9:3:1:4
node 10:3
10:23:2:2
10:17:2:2
10:15:2:4
node 11:4
11:24:3:4
11:23:1:3
11:9:1:4
11:23:0:3
node 12:1
12:13:3:4
node 13:2
13:23:1:2
13:20:3:3
node 16:2
16:23:1:2
16:24:3:2
node 17:2
17:25:3:3
17:9:2:1
node 18:4
18:8:1:4
18:22:2:3
18:4:3:3
18:11:1:1
node 19:3
19:5:0:3
19:12:2:3
19:7:1:2
node 22:4
22:11:2:1
22:3:1:3
22:19:2:4
22:24:0:3
node 23:2
23:26:0:4
23:5:0:2
node 24:1
24:4:0:3
node 25:2
25:1:3:3
25:3:0:2
