verbose=1
max_cycle=100000
route:0->0:0
route:0->1:2
route:0->2:1
route:0->3:2

route:1->0:4
route:1->1:0
route:1->2:4
route:1->3:1

route:2->0:3
route:2->1:2
route:2->2:0
route:2->3:2

route:3->0:4
route:3->1:3
route:3->2:4
route:3->3:0

node 0:8
0:3:3:2
0:1:2:1
0:2:0:4
node 1:3
1:2:2:1
node 2:1
2:0:2:3
node 3:2
3:0:0:3
3:1:1:5

